EVR 628- Intro to Environmental Data Science
…
# Write Excel
library(openxlsx)
write.xlsx(data, "data/processed/lionfish_clean.xlsx")

# Write RDS
saveRDS(data, "data/processed/lionfish_clean.rds")
write_rds(data, "data/processed/lionfish_clean.rds")

Example: Working with Real Data

# Load the lionfish data
data_lionfish

# A tibble: 109 × 9
   id       site    lat   lon total_length_mm total_weight_gr size_class depth_m
   <chr>    <chr> <dbl> <dbl>           <dbl>           <dbl> <chr>        <dbl>
 1 001-Po-… Para…  20.5 -87.2             213           113.  large         38.1
 2 002-Po-… Para…  20.5 -87.2             124            27.6 medium        27.9
 3 003-Pd-… Pared  20.5 -87.2             166            52.3 medium        18.5
 4 004-Cs-… Cano…  20.5 -87.2             203           123.  large         15.5
 5 005-Cs-… Cano…  20.5 -87.2             212           129   large         15  
 6 006-Pl-… Paam…  20.5 -87.2             210           139.  large         22.7
 7 007-Pl-… Paam…  20.5 -87.2             132            50.3 medium        13.4
 8 008-Po-… Para…  20.5 -87.2             122            17.2 medium        18.5
 9 009-Po-… Para…  20.5 -87.2             224           113.  large         18.2
10 010-Pd-… Pared  20.5 -87.2             117            19.6 medium        12.5
# ℹ 99 more rows
# ℹ 1 more variable: temperature_C <dbl>
…
