EVR 628- Intro to Environmental Data Science
…
Logical operators:

&: AND

|: OR

!: NOT

%in%: Match any of

And the data_MPA data

data_MPA

# A tibble: 100 × 5
    time id    protected after biomass
   <int> <chr>     <dbl> <dbl>   <dbl>
 1    -5 a             1     0    9.37
 2    -5 b             1     0   10.2 
 3    -5 c             1     0    9.16
 4    -5 d             1     0   11.6 
 5    -5 e             1     0   10.3 
 6    -5 f             0     0    9.18
 7    -5 g             0     0   10.5 
 8    -5 h             0     0   10.7 
 9    -5 i             0     0   10.6 
10    -5 j             0     0    9.69
# ℹ 90 more rows

1) Filtering Rows with filter()

filter(): Keep rows that match your conditions

Example: Keep data from protected sites

# Shorthand syntax
  # data to be filtered  Condition to be met
filter(data_MPA,         protected ==1)

# A tibble: 50 × 5
    time id    protected after biomass
   <int> <chr>     <dbl> <dbl>   <dbl>
 1    -5 a             1     0    9.37
 2    -5 b             1     0   10.2 
 3    -5 c             1     0    9.16
 4    -5 d             1     0   11.6 
 5    -5 e             1     0   10.3 
 6    -4 a             1     0   11.5 
 7    -4 b             1     0   10.4 
 8    -4 c             1     0    9.38
 9    -4 d             1     0    7.79
10    -4 e             1     0   11.1 
# ℹ 40 more rows
…
2) Arranging Rows with arrange()

arrange(): Reorder rows by column values

Example: Arrange data in order of biomass

data_MPA |> 
  arrange(biomass) # Sort by biomass (ascending by default)

# A tibble: 100 × 5
    time id    protected after biomass
   <int> <chr>     <dbl> <dbl>   <dbl>
 1    -4 d             1     0    7.79
 2    -3 d             1     0    8.01
 3     1 g             0     1    8.20
 4    -3 h             0     0    8.53
 5    -2 e             1     0    8.62
 6     4 g             0     1    8.72
 7     4 i             0     1    8.78
 8     0 h             0     1    8.96
 9    -5 c             1     0    9.16
10    -5 f             0     0    9.18
# ℹ 90 more rows

2) Arranging Rows with arrange()

You can also arrange in descending order using desc() around a variable name

Example: Arrange data in order of decreasing biomass

data_MPA |> 
  arrange(desc(biomass)) # Sort by biomass, descending order

# A tibble: 100 × 5
    time id    protected after biomass
   <int> <chr>     <dbl> <dbl>   <dbl>
 1     1 a             1     1    14.4
 2     4 e             1     1    13.6
 3     0 e             1     1    13.4
 4     4 b             1     1    13.2
 5     3 c             1     1    13.2
 6     4 c             1     1    13.2
 7     4 d             1     1    12.7
 8     1 c             1     1    12.7
 9     2 c             1     1    12.6
10     3 e             1     1    12.6
# ℹ 90 more rows
…
Column operations

Back to data_lionfish

data_lionfish

# A tibble: 109 × 9
   id       site    lat   lon total_length_mm total_weight_gr size_class depth_m
   <chr>    <chr> <dbl> <dbl>           <dbl>           <dbl> <chr>        <dbl>
 1 001-Po-… Para…  20.5 -87.2             213           113.  large         38.1
 2 002-Po-… Para…  20.5 -87.2             124            27.6 medium        27.9
 3 003-Pd-… Pared  20.5 -87.2             166            52.3 medium        18.5
 4 004-Cs-… Cano…  20.5 -87.2             203           123.  large         15.5
 5 005-Cs-… Cano…  20.5 -87.2             212           129   large         15  
 6 006-Pl-… Paam…  20.5 -87.2             210           139.  large         22.7
 7 007-Pl-… Paam…  20.5 -87.2             132            50.3 medium        13.4
 8 008-Po-… Para…  20.5 -87.2             122            17.2 medium        18.5
 9 009-Po-… Para…  20.5 -87.2             224           113.  large         18.2
10 010-Pd-… Pared  20.5 -87.2             117            19.6 medium        12.5
# ℹ 99 more rows
# ℹ 1 more variable: temperature_C <dbl>

1) Selecting Columns with select()

select(): Allows us to state which columns we want to keep

Select columns by name

# Select specific columns
data_lionfish |> 
  select(id, total_length_mm, total_weight_gr)

# A tibble: 109 × 3
   id              total_length_mm total_weight_gr
   <chr>                     <dbl>           <dbl>
 1 001-Po-16/05/10             213           113. 
 2 002-Po-29/05/10             124            27.6
 3 003-Pd-29/05/10             166            52.3
 4 004-Cs-12/06/10             203           123. 
 5 005-Cs-12/06/10             212           129  
 6 006-Pl-21/06/10             210           139. 
 7 007-Pl-21/06/10             132            50.3
 8 008-Po-04/07/10             122            17.2
 9 009-Po-04/07/10             224           113. 
10 010-Pd-08/07/10             117            19.6
# ℹ 99 more rows

Select columns by position

# Select columns by position
data_lionfish |> 
  select(c(1, 5:6))

# A tibble: 109 × 3
   id              total_length_mm total_weight_gr
   <chr>                     <dbl>           <dbl>
 1 001-Po-16/05/10             213           113. 
 2 002-Po-29/05/10             124            27.6
 3 003-Pd-29/05/10             166            52.3
 4 004-Cs-12/06/10             203           123. 
 5 005-Cs-12/06/10             212           129  
 6 006-Pl-21/06/10             210           139. 
 7 007-Pl-21/06/10             132            50.3
 8 008-Po-04/07/10             122            17.2
 9 009-Po-04/07/10             224           113. 
10 010-Pd-08/07/10             117            19.6
# ℹ 99 more rows

1) Selecting Columns with select()

Select columns by partial name match

# Select columns by pattern
select(data_lionfish, contains("total"))

# A tibble: 109 × 2
   total_length_mm total_weight_gr
             <dbl>           <dbl>
 1             213           113. 
 2             124            27.6
 3             166            52.3
 4             203           123. 
 5             212           129  
 6             210           139. 
 7             132            50.3
 8             122            17.2
 9             224           113. 
10             117            19.6
# ℹ 99 more rows

Remove columns by position

# Exclude columns
select(data_lionfish, -c(6:9))

# A tibble: 109 × 5
   id              site      lat   lon total_length_mm
   <chr>           <chr>   <dbl> <dbl>           <dbl>
 1 001-Po-16/05/10 Paraiso  20.5 -87.2             213
 2 002-Po-29/05/10 Paraiso  20.5 -87.2             124
 3 003-Pd-29/05/10 Pared    20.5 -87.2             166
 4 004-Cs-12/06/10 Canones  20.5 -87.2             203
 5 005-Cs-12/06/10 Canones  20.5 -87.2             212
 6 006-Pl-21/06/10 Paamul   20.5 -87.2             210
 7 007-Pl-21/06/10 Paamul   20.5 -87.2             132
 8 008-Po-04/07/10 Paraiso  20.5 -87.2             122
 9 009-Po-04/07/10 Paraiso  20.5 -87.2             224
10 010-Pd-08/07/10 Pared    20.5 -87.2             117
# ℹ 99 more rows
…
everything(): All other columns columns

2) Renaming Columns with rename()

rename(): Change column names

Example: Rename id to fish_id, total_length_mm to length_mm, and total_weight_mm to weight_gr

# Rename specific columns
rename(data_lionfish,
       fish_id = id,
       length = total_length_mm,
       weight = total_weight_gr)

# A tibble: 109 × 9
   fish_id      site    lat   lon length weight size_class depth_m temperature_C
   <chr>        <chr> <dbl> <dbl>  <dbl>  <dbl> <chr>        <dbl>         <dbl>
 1 001-Po-16/0… Para…  20.5 -87.2    213  113.  large         38.1            28
 2 002-Po-29/0… Para…  20.5 -87.2    124   27.6 medium        27.9            28
 3 003-Pd-29/0… Pared  20.5 -87.2    166   52.3 medium        18.5            28
 4 004-Cs-12/0… Cano…  20.5 -87.2    203  123.  large         15.5            28
 5 005-Cs-12/0… Cano…  20.5 -87.2    212  129   large         15              28
 6 006-Pl-21/0… Paam…  20.5 -87.2    210  139.  large         22.7            29
 7 007-Pl-21/0… Paam…  20.5 -87.2    132   50.3 medium        13.4            29
 8 008-Po-04/0… Para…  20.5 -87.2    122   17.2 medium        18.5            29
 9 009-Po-04/0… Para…  20.5 -87.2    224  113.  large         18.2            29
10 010-Pd-08/0… Pared  20.5 -87.2    117   19.6 medium        12.5            29
# ℹ 99 more rows

Note that the syntax is new_name = old_name

3) Creating New Columns with mutate()

mutate(): Add new columns or modify existing ones

# Create new columns
data_lionfish |> 
  mutate(length_weight_ratio = total_length_mm / total_weight_gr)

# A tibble: 109 × 10
   id       site    lat   lon total_length_mm total_weight_gr size_class depth_m
   <chr>    <chr> <dbl> <dbl>           <dbl>           <dbl> <chr>        <dbl>
 1 001-Po-… Para…  20.5 -87.2             213           113.  large         38.1
 2 002-Po-… Para…  20.5 -87.2             124            27.6 medium        27.9
 3 003-Pd-… Pared  20.5 -87.2             166            52.3 medium        18.5
 4 004-Cs-… Cano…  20.5 -87.2             203           123.  large         15.5
 5 005-Cs-… Cano…  20.5 -87.2             212           129   large         15  
 6 006-Pl-… Paam…  20.5 -87.2             210           139.  large         22.7
 7 007-Pl-… Paam…  20.5 -87.2             132            50.3 medium        13.4
 8 008-Po-… Para…  20.5 -87.2             122            17.2 medium        18.5
 9 009-Po-… Para…  20.5 -87.2             224           113.  large         18.2
10 010-Pd-… Pared  20.5 -87.2             117            19.6 medium        12.5
# ℹ 99 more rows
# ℹ 2 more variables: temperature_C <dbl>, length_weight_ratio <dbl>

3) Recreating Columns with mutate()

You can overwrite an existing column

You can use conditional logic

# Using case_when()
data_lionfish |> 
  mutate(size_class = ifelse(total_length_mm < 150, "small", "large"))

# A tibble: 109 × 9
   id       site    lat   lon total_length_mm total_weight_gr size_class depth_m
   <chr>    <chr> <dbl> <dbl>           <dbl>           <dbl> <chr>        <dbl>
 1 001-Po-… Para…  20.5 -87.2             213           113.  large         38.1
 2 002-Po-… Para…  20.5 -87.2             124            27.6 small         27.9
 3 003-Pd-… Pared  20.5 -87.2             166            52.3 large         18.5
 4 004-Cs-… Cano…  20.5 -87.2             203           123.  large         15.5
 5 005-Cs-… Cano…  20.5 -87.2             212           129   large         15  
 6 006-Pl-… Paam…  20.5 -87.2             210           139.  large         22.7
 7 007-Pl-… Paam…  20.5 -87.2             132            50.3 small         13.4
 8 008-Po-… Para…  20.5 -87.2             122            17.2 small         18.5
 9 009-Po-… Para…  20.5 -87.2             224           113.  large         18.2
10 010-Pd-… Pared  20.5 -87.2             117            19.6 small         12.5
# ℹ 99 more rows
# ℹ 1 more variable: temperature_C <dbl>

Grouping and summarizing

First, let’s modify the data_MPA object

Recall that it looked like this:

data_MPA

# A tibble: 100 × 5
    time id    protected after biomass
   <int> <chr>     <dbl> <dbl>   <dbl>
 1    -5 a             1     0    9.37
 2    -5 b             1     0   10.2 
 3    -5 c             1     0    9.16
 4    -5 d             1     0   11.6 
 5    -5 e             1     0   10.3 
 6    -5 f             0     0    9.18
 7    -5 g             0     0   10.5 
 8    -5 h             0     0   10.7 
 9    -5 i             0     0   10.6 
10    -5 j             0     0    9.69
# ℹ 90 more rows

I’d rather have it like this:

data_MPA <- data_MPA |> 
  mutate(protected = ifelse(protected == 1, "yes", "no"),
         after = ifelse(after == 1, "after", "before"))

data_MPA

# A tibble: 100 × 5
    time id    protected after  biomass
   <int> <chr> <chr>     <chr>    <dbl>
 1    -5 a     yes       before    9.37
 2    -5 b     yes       before   10.2 
 3    -5 c     yes       before    9.16
 4    -5 d     yes       before   11.6 
 5    -5 e     yes       before   10.3 
 6    -5 f     no        before    9.18
 7    -5 g     no        before   10.5 
 8    -5 h     no        before   10.7 
 9    -5 i     no        before   10.6 
10    -5 j     no        before    9.69
# ℹ 90 more rows

1) Grouping Data with group_by()

group_by(): Group data by one or more variables

# Group by protection status and timing
data_MPA |> 
  group_by(protected, after)

# A tibble: 100 × 5
# Groups:   protected, after [4]
    time id    protected after  biomass
   <int> <chr> <chr>     <chr>    <dbl>
 1    -5 a     yes       before    9.37
 2    -5 b     yes       before   10.2 
 3    -5 c     yes       before    9.16
 4    -5 d     yes       before   11.6 
 5    -5 e     yes       before   10.3 
 6    -5 f     no        before    9.18
 7    -5 g     no        before   10.5 
 8    -5 h     no        before   10.7 
 9    -5 i     no        before   10.6 
10    -5 j     no        before    9.69
# ℹ 90 more rows
…
