Data Tidying and Merging
…
Changing shape of data

Lengthening and widening with pivot_longer() and pivot_wider()

1) Lengthening data

Type of problem: Column names are values, not variables

Code

library(EVR628tools)
data("data_kelp")
data_kelp

# A tibble: 807 × 25
   location site  transect genus_species      TL_5 TL_10 TL_15 TL_20 TL_25 TL_30
   <chr>    <chr>    <dbl> <chr>             <dbl> <dbl> <dbl> <dbl> <dbl> <dbl>
 1 ASA      North        1 Alloclinus holde…    NA     1    NA    NA    NA    NA
 2 ASA      North        1 Caulolatilus pri…    NA    NA    NA     3    NA    NA
 3 ASA      North        1 Chromis punctipi…    NA    14    NA    NA    NA    NA
 4 ASA      North        1 Embiotoca jackso…    NA    NA    NA     6    NA    NA
 5 ASA      North        1 Embiotoca latera…    NA    NA    NA     1    NA    NA
 6 ASA      North        1 Girella nigricans    NA    NA    NA    NA     1    NA
 7 ASA      North        1 Hypsypops rubicu…    NA    NA    NA     4    NA    NA
 8 ASA      North        1 Oxyjulis califor…     2    61    46    NA    NA    NA
 9 ASA      North        1 Paralabrax clath…    NA    NA     1    NA    NA    NA
10 ASA      North        1 Sebastes carnatus    NA    NA    NA    NA     1    NA
# ℹ 797 more rows
# ℹ 15 more variables: TL_35 <dbl>, TL_40 <dbl>, TL_45 <dbl>, TL_50 <dbl>,
#   TL_55 <dbl>, TL_60 <dbl>, TL_65 <dbl>, TL_70 <lgl>, TL_75 <dbl>,
#   TL_80 <dbl>, TL_85 <dbl>, TL_90 <dbl>, TL_95 <dbl>, TL_100 <dbl>,
#   TL_105 <dbl>
…
Send the abundance values to to a new column called abundance

What do you expect the new dimensions of the data to be?

Solution: pivot_longer()

# Make it tidy
data_kelp |> # data_kelp goes into...
  pivot_longer(
    cols = starts_with("TL_"), #specify columns to pivot
    names_to = "total_length", # Where should column names be placed?
    values_to = "abundance")   # Where should values be placed?

# A tibble: 16,947 × 6
   location site  transect genus_species      total_length abundance
   <chr>    <chr>    <dbl> <chr>              <chr>            <dbl>
 1 ASA      North        1 Alloclinus holderi TL_5                NA
 2 ASA      North        1 Alloclinus holderi TL_10                1
 3 ASA      North        1 Alloclinus holderi TL_15               NA
 4 ASA      North        1 Alloclinus holderi TL_20               NA
 5 ASA      North        1 Alloclinus holderi TL_25               NA
 6 ASA      North        1 Alloclinus holderi TL_30               NA
 7 ASA      North        1 Alloclinus holderi TL_35               NA
 8 ASA      North        1 Alloclinus holderi TL_40               NA
 9 ASA      North        1 Alloclinus holderi TL_45               NA
10 ASA      North        1 Alloclinus holderi TL_50               NA
# ℹ 16,937 more rows
…
What’s up with all those NAs?

What type of data is in total_length and abundance?

Dealing with NAs

# Make it tidy
data_kelp |> # data_kelp goes into...
  pivot_longer(
    cols = starts_with("TL_"), #specify columns to pivot
    names_to = "total_length", # Where should column names be placed?
    values_to = "abundance",   # Where should values be placed?
    values_drop_na = TRUE)     # Specify that NA values should be removed)

# A tibble: 1,116 × 6
   location site  transect genus_species         total_length abundance
   <chr>    <chr>    <dbl> <chr>                 <chr>            <dbl>
 1 ASA      North        1 Alloclinus holderi    TL_10                1
 2 ASA      North        1 Caulolatilus princeps TL_20                3
 3 ASA      North        1 Chromis punctipinnis  TL_10               14
 4 ASA      North        1 Embiotoca jacksoni    TL_20                6
 5 ASA      North        1 Embiotoca lateralis   TL_20                1
 6 ASA      North        1 Girella nigricans     TL_25                1
 7 ASA      North        1 Hypsypops rubicundus  TL_20                4
 8 ASA      North        1 Oxyjulis californica  TL_5                 2
 9 ASA      North        1 Oxyjulis californica  TL_10               61
10 ASA      North        1 Oxyjulis californica  TL_15               46
# ℹ 1,106 more rows

Removing the prefix

# Make it tidy
data_kelp |> # data_kelp goes into...
  pivot_longer(
    cols = starts_with("TL_"), #specify columns to pivot
    names_to = "total_length", # Where should column names be placed?
    values_to = "abundance",   # Where should values be placed?
    values_drop_na = TRUE,     # Specify that NA values should be removed)
    names_prefix = "TL_")      # Remove "TL_" from the total length

# A tibble: 1,116 × 6
   location site  transect genus_species         total_length abundance
   <chr>    <chr>    <dbl> <chr>                 <chr>            <dbl>
 1 ASA      North        1 Alloclinus holderi    10                   1
 2 ASA      North        1 Caulolatilus princeps 20                   3
 3 ASA      North        1 Chromis punctipinnis  10                  14
 4 ASA      North        1 Embiotoca jacksoni    20                   6
 5 ASA      North        1 Embiotoca lateralis   20                   1
 6 ASA      North        1 Girella nigricans     25                   1
 7 ASA      North        1 Hypsypops rubicundus  20                   4
 8 ASA      North        1 Oxyjulis californica  5                    2
 9 ASA      North        1 Oxyjulis californica  10                  61
10 ASA      North        1 Oxyjulis californica  15                  46
# ℹ 1,106 more rows
Making total_length numeric

# Make it tidy
tidy_kelp <- data_kelp |> # data_kelp goes into...
  pivot_longer(
    cols = starts_with("TL_"), #specify columns to pivot
    names_to = "total_length", # Where should column names be placed?
    values_to = "abundance",   # Where should values be placed?
    values_drop_na = TRUE,     # Specify that NA values should be removed)
    names_prefix = "TL_") |>   # Remove "TL_" from the total length
  mutate(total_length = as.numeric(total_length) -2.5) # Use mutate to rewrite column
  
tidy_kelp

# A tibble: 1,116 × 6
   location site  transect genus_species         total_length abundance
   <chr>    <chr>    <dbl> <chr>                        <dbl>     <dbl>
 1 ASA      North        1 Alloclinus holderi             7.5         1
 2 ASA      North        1 Caulolatilus princeps         17.5         3
 3 ASA      North        1 Chromis punctipinnis           7.5        14
 4 ASA      North        1 Embiotoca jacksoni            17.5         6
 5 ASA      North        1 Embiotoca lateralis           17.5         1
 6 ASA      North        1 Girella nigricans             22.5         1
 7 ASA      North        1 Hypsypops rubicundus          17.5         4
 8 ASA      North        1 Oxyjulis californica           2.5         2
 9 ASA      North        1 Oxyjulis californica           7.5        61
10 ASA      North        1 Oxyjulis californica          12.5        46
# ℹ 1,106 more rows
…
Image Credit: Wickham, Cetinkaya-Rundel, and Grolemund (2023)

Each circle represents data.frames x and y (or left and right)

The gray area represents the data retained after the operation

Keys

How does R know what “data overlap” is?

It doesn’t… We need to specify the keys

Remember the data we have

# A tibble: 1,116 × 3
   genus_species         total_length abundance
   <chr>                        <dbl>     <dbl>
 1 Alloclinus holderi             7.5         1
 2 Caulolatilus princeps         17.5         3
 3 Chromis punctipinnis           7.5        14
 4 Embiotoca jacksoni            17.5         6
 5 Embiotoca lateralis           17.5         1
 6 Girella nigricans             22.5         1
 7 Hypsypops rubicundus          17.5         4
 8 Oxyjulis californica           2.5         2
 9 Oxyjulis californica           7.5        61
10 Oxyjulis californica          12.5        46
# ℹ 1,106 more rows
…
Image Credit: Wickham, Cetinkaya-Rundel, and Grolemund (2023)

x argument will be tidy_kelp (on the left)

y argument will be tidy_fish_info (on the right)

by argument is where we specify the key (genus_species on the right matches sciname on the left)

Combining data with left_join()

left_join(x = tidy_kelp,                                # X is tidy kelp
          y = tidy_fish_info |> select(-trophic_level), # Y is tidy_fish_info, after removing trophic level
          by = join_by(genus_species == sciname))       # And we tell R how to match them

# A tibble: 1,116 × 8
   location site  transect genus_species   total_length abundance        a     b
   <chr>    <chr>    <dbl> <chr>                  <dbl>     <dbl>    <dbl> <dbl>
 1 ASA      North        1 Alloclinus hol…          7.5         1  0.0053   3.08
 2 ASA      North        1 Caulolatilus p…         17.5         3  0.00708  3.07
 3 ASA      North        1 Chromis puncti…          7.5        14  0.0126   3.03
 4 ASA      North        1 Embiotoca jack…         17.5         6  0.0295   2.99
 5 ASA      North        1 Embiotoca late…         17.5         1 NA       NA   
 6 ASA      North        1 Girella nigric…         22.5         1 NA       NA   
 7 ASA      North        1 Hypsypops rubi…         17.5         4 NA       NA   
 8 ASA      North        1 Oxyjulis calif…          2.5         2 NA       NA   
 9 ASA      North        1 Oxyjulis calif…          7.5        61 NA       NA   
10 ASA      North        1 Oxyjulis calif…         12.5        46 NA       NA   
# ℹ 1,106 more rows

Why do I have NAs?

Should I be worried?

Combining data with right_join()

right_join(x = tidy_kelp,                                # X is tidy kelp
           y = tidy_fish_info |> select(-trophic_level), # Y is tidy_fish_info, after removing trophic level
           by = join_by(genus_species == sciname))       # And we tell R how to match them

# A tibble: 192 × 8
   location site  transect genus_species    total_length abundance       a     b
   <chr>    <chr>    <dbl> <chr>                   <dbl>     <dbl>   <dbl> <dbl>
 1 ASA      North        1 Alloclinus hold…          7.5         1 0.0053   3.08
 2 ASA      North        1 Caulolatilus pr…         17.5         3 0.00708  3.07
 3 ASA      North        1 Chromis punctip…          7.5        14 0.0126   3.03
 4 ASA      North        1 Embiotoca jacks…         17.5         6 0.0295   2.99
 5 ASA      North        2 Alloclinus hold…          2.5         1 0.0053   3.08
 6 ASA      North        2 Alloclinus hold…          7.5         2 0.0053   3.08
 7 ASA      North        2 Chromis punctip…          2.5         3 0.0126   3.03
 8 ASA      North        2 Chromis punctip…          7.5         6 0.0126   3.03
 9 ASA      North        2 Embiotoca jacks…         17.5         3 0.0295   2.99
10 ASA      North        2 Embiotoca jacks…         27.5         1 0.0295   2.99
# ℹ 182 more rows
…
There is no data on the “left” side for lionfish, so there are no matches

Combining data with inner_join()

inner_join(x = tidy_kelp,                                # X is tidy kelp
           y = tidy_fish_info |> select(-trophic_level), # Y is tidy_fish_info, after removing trophic level
           by = join_by(genus_species == sciname))       # And we tell R how to match them

# A tibble: 191 × 8
   location site  transect genus_species    total_length abundance       a     b
   <chr>    <chr>    <dbl> <chr>                   <dbl>     <dbl>   <dbl> <dbl>
 1 ASA      North        1 Alloclinus hold…          7.5         1 0.0053   3.08
 2 ASA      North        1 Caulolatilus pr…         17.5         3 0.00708  3.07
 3 ASA      North        1 Chromis punctip…          7.5        14 0.0126   3.03
 4 ASA      North        1 Embiotoca jacks…         17.5         6 0.0295   2.99
 5 ASA      North        2 Alloclinus hold…          2.5         1 0.0053   3.08
 6 ASA      North        2 Alloclinus hold…          7.5         2 0.0053   3.08
 7 ASA      North        2 Chromis punctip…          2.5         3 0.0126   3.03
 8 ASA      North        2 Chromis punctip…          7.5         6 0.0126   3.03
 9 ASA      North        2 Embiotoca jacks…         17.5         3 0.0295   2.99
10 ASA      North        2 Embiotoca jacks…         27.5         1 0.0295   2.99
# ℹ 181 more rows

Combining data with full_join()

full_join(x = tidy_kelp,                                # X is tidy kelp
          y = tidy_fish_info |> select(-trophic_level), # Y is tidy_fish_info, after removing trophic level
          by = join_by(genus_species == sciname))       # And we tell R how to match them

# A tibble: 1,117 × 8
   location site  transect genus_species   total_length abundance        a     b
   <chr>    <chr>    <dbl> <chr>                  <dbl>     <dbl>    <dbl> <dbl>
 1 ASA      North        1 Alloclinus hol…          7.5         1  0.0053   3.08
 2 ASA      North        1 Caulolatilus p…         17.5         3  0.00708  3.07
 3 ASA      North        1 Chromis puncti…          7.5        14  0.0126   3.03
 4 ASA      North        1 Embiotoca jack…         17.5         6  0.0295   2.99
 5 ASA      North        1 Embiotoca late…         17.5         1 NA       NA   
 6 ASA      North        1 Girella nigric…         22.5         1 NA       NA   
 7 ASA      North        1 Hypsypops rubi…         17.5         4 NA       NA   
 8 ASA      North        1 Oxyjulis calif…          2.5         2 NA       NA   
 9 ASA      North        1 Oxyjulis calif…          7.5        61 NA       NA   
10 ASA      North        1 Oxyjulis calif…         12.5        46 NA       NA   
# ℹ 1,107 more rows
…
Failing to specify keys results in duplicates

tidy_kelp |> # Tidy kelp goes into... (Yes, you can pipe)
  left_join(tidy_fish_info2 |> select(-trophic_level),
            by = join_by(genus_species == sciname)) # I failed to link site to north_south

Warning in left_join(tidy_kelp, select(tidy_fish_info2, -trophic_level), : Detected an unexpected many-to-many relationship between `x` and `y`.
ℹ Row 1 of `x` matches multiple rows in `y`.
ℹ Row 3 of `y` matches multiple rows in `x`.
ℹ If a many-to-many relationship is expected, set `relationship =
  "many-to-many"` to silence this warning.

# A tibble: 1,307 × 9
   location site  transect genus_species   total_length abundance        a     b
   <chr>    <chr>    <dbl> <chr>                  <dbl>     <dbl>    <dbl> <dbl>
 1 ASA      North        1 Alloclinus hol…          7.5         1  0.00583  3.39
 2 ASA      North        1 Alloclinus hol…          7.5         1  0.0053   3.08
 3 ASA      North        1 Caulolatilus p…         17.5         3  0.00779  3.38
 4 ASA      North        1 Caulolatilus p…         17.5         3  0.00708  3.07
 5 ASA      North        1 Chromis puncti…          7.5        14  0.0138   3.33
 6 ASA      North        1 Chromis puncti…          7.5        14  0.0126   3.03
 7 ASA      North        1 Embiotoca jack…         17.5         6  0.0325   3.29
 8 ASA      North        1 Embiotoca jack…         17.5         6  0.0295   2.99
 9 ASA      North        1 Embiotoca late…         17.5         1 NA       NA   
10 ASA      North        1 Girella nigric…         22.5         1 NA       NA   
# ℹ 1,297 more rows
# ℹ 1 more variable: north_south <chr>

Correctly specify the two keys

tidy_kelp |> # Tidy kelp goes into... (Yes, you can pipe)
  left_join(tidy_fish_info2 |> select(-trophic_level),
            by = join_by(genus_species == sciname,
                         site == north_south))

# A tibble: 1,116 × 8
   location site  transect genus_species   total_length abundance        a     b
   <chr>    <chr>    <dbl> <chr>                  <dbl>     <dbl>    <dbl> <dbl>
 1 ASA      North        1 Alloclinus hol…          7.5         1  0.00583  3.39
 2 ASA      North        1 Caulolatilus p…         17.5         3  0.00779  3.38
 3 ASA      North        1 Chromis puncti…          7.5        14  0.0138   3.33
 4 ASA      North        1 Embiotoca jack…         17.5         6  0.0325   3.29
 5 ASA      North        1 Embiotoca late…         17.5         1 NA       NA   
 6 ASA      North        1 Girella nigric…         22.5         1 NA       NA   
 7 ASA      North        1 Hypsypops rubi…         17.5         4 NA       NA   
 8 ASA      North        1 Oxyjulis calif…          2.5         2 NA       NA   
 9 ASA      North        1 Oxyjulis calif…          7.5        61 NA       NA   
10 ASA      North        1 Oxyjulis calif…         12.5        46 NA       NA   
# ℹ 1,106 more rows
…
# And now combine them
biomass <-tidy_kelp |> 
  left_join(tidy_fish_info,
            by = join_by(genus_species == sciname)) |>
 # And use last week's knowledge to calculate the rest
  mutate(biomass = (a * total_length ^ b) * abundance / 1000 ) |> 
  group_by(location, site, transect) |> 
  summarize(biomass = sum(biomass, na.rm = T) / 60)

# A tibble: 82 × 4
# Groups:   location, site [28]
   location site  transect  biomass
   <chr>    <chr>    <dbl>    <dbl>
 1 ASA      North        1 0.0190  
 2 ASA      North        2 0.0182  
 3 ASA      North        3 0.0217  
 4 ASA      South        1 0       
 5 ASA      South        2 0.0132  
 6 ASA      South        3 0.188   
 7 BMA      North        1 0.0137  
 8 BMA      North        2 0.0245  
 9 BMA      North        3 0.000188
10 BMA      South        1 0.0144  
# ℹ 72 more rows
…
