Factors, Dates, and Strings of Text
…
fct_relevel() - Reorder factor levels by hand

fct_lump_*() - Group small categories

There are many others

Today’s data #1

#You will need to reinstall the package: remotes::install_github("jcvdav/EVR628tools")
library(EVR628tools)
# Load the geartypes data
data("data_geartypes")
data_geartypes

# A tibble: 840 × 3
   vessel_id                             geartype           effort_hours
   <chr>                                 <chr>                     <dbl>
 1 00319684b-b03f-3b96-7560-0750e4b828fa TRAWLERS                   2.22
 2 00618559b-b68c-f85c-df65-112808b97e68 OTHER_PURSE_SEINES       577.  
 3 0091ceee9-9421-e3bc-9c5a-6d854975545c TUNA_PURSE_SEINES         17.0 
 4 00e3bfcdd-de86-c933-dbd1-a6c354a40f2c TRAWLERS                3226.  
 5 00e410e76-6d15-b0ad-4b4e-3b086cb9eb81 TRAWLERS                1484.  
 6 0108b3937-772f-d55b-aeb7-1c6113ac1722 TRAWLERS                 474.  
 7 01391f16b-b01b-3527-c87e-c252b6054037 TRAWLERS                 503.  
 8 0144ae898-893a-5fca-3029-d6f4d9e1c6cf TRAWLERS                 286.  
 9 01654f527-7d77-76e3-e085-21c60790c557 TRAWLERS                 233.  
10 01dbe4ace-ee89-a70e-3136-11b42bbebeb7 POLE_AND_LINE              3.31
# ℹ 830 more rows
…
