Working with spatial data in R
…
   Min. 1st Qu.  Median    Mean 3rd Qu.    Max. 
  30.00   53.50   74.00   87.18  134.50  155.00 

Keep only some columns

milton_light <- data_milton_sf |> 
  select(iso_time, wind_speed)
milton_light

Simple feature collection with 62 features and 2 fields
Geometry type: POINT
Dimension:     XY
Bounding box:  xmin: -95.5 ymin: 20.8 xmax: -65.9 ymax: 29.5
Geodetic CRS:  WGS 84
# A tibble: 62 × 3
   iso_time            wind_speed     geometry
   <dttm>                   <dbl>  <POINT [°]>
 1 2024-10-04 18:00:00         30   (-94.6 21)
 2 2024-10-04 21:00:00         30 (-94.9 20.8)
 3 2024-10-05 00:00:00         30 (-95.2 20.8)
 4 2024-10-05 03:00:00         30   (-95.3 21)
 5 2024-10-05 06:00:00         30 (-95.4 21.4)
 6 2024-10-05 09:00:00         30 (-95.5 21.7)
 7 2024-10-05 12:00:00         30   (-95.5 22)
 8 2024-10-05 15:00:00         33 (-95.5 22.3)
 9 2024-10-05 18:00:00         35 (-95.5 22.5)
10 2024-10-05 21:00:00         35 (-95.5 22.6)
# ℹ 52 more rows
…
