Data Management and Transformation
…
Code

# Option 1: With what you already know
tuna_data |> 
  group_by(year, species) |> 
  summarize(total_catch = sum(catch)) |> # We firrst calculate total catch by species and year (i.e. remove gear and flag info) 
  group_by(species) |> # Then we group by species
  filter(total_catch == max(total_catch)) |> # And use the filter function. Since the data are grouped, the filter will act on each group
  select(species, year_of_max_catch = year) |>  # And we keep the columns we care about
  arrange(species)

`summarise()` has grouped output by 'year'. You can override using the
`.groups` argument.

# A tibble: 21 × 2
# Groups:   species [21]
   species year_of_max_catch
   <chr>               <dbl>
 1 ALB                  2014
 2 BET                  2000
 3 BIL                  2013
 4 BKJ                  2016
 5 BLM                  1973
 6 BUM                  1963
 7 BXQ                  2019
 8 BZX                  2023
 9 CGX                  1983
10 DOX                  2009
# ℹ 11 more rows
Code

# Option 2: Using slice_max
tuna_data |> 
  group_by(year, species) |> 
  summarize(total_catch = sum(catch)) |> 
  group_by(species) |> 
  slice_max(total_catch) |> 
  select(species, year_of_max_catch = year) |> 
  arrange(species)

`summarise()` has grouped output by 'year'. You can override using the
`.groups` argument.

# A tibble: 21 × 2
# Groups:   species [21]
   species year_of_max_catch
   <chr>               <dbl>
 1 ALB                  2014
 2 BET                  2000
 3 BIL                  2013
 4 BKJ                  2016
 5 BLM                  1973
 6 BUM                  1963
 7 BXQ                  2019
 8 BZX                  2023
 9 CGX                  1983
10 DOX                  2009
# ℹ 11 more rows
…
