Data tidying and Merging
…
Part D: Tidy your price data

Post-it up

Look at the documentation for your pivot_* function. What does it say about cases where names_to is of length > 1?

What about the names_sep argument?

Use the appropriate pivot_* function to reshape your data and save them to a new object called tidy_tuna_prices3

Your resulting tibble should have 104 rows and 4 columns and look like this:4

# A tibble: 104 × 4
    year market presentation price
   <dbl> <chr>  <chr>        <dbl>
 1  1997 japan  fresha       8204.
 2  1997 japan  frozenb      8169.
 3  1998 japan  fresha       7703.
 4  1998 japan  frozenb      6320.
 5  1999 japan  fresha       8809.
 6  1999 japan  frozenb      9093.
 7  2000 japan  fresha       9198.
 8  2000 japan  frozenb      8557.
 9  2001 japan  fresha       8260.
10  2001 japan  frozenb      5983.
# ℹ 94 more rows

Post-it down

Values in presentation

Note that the values in the presentation column are not ideal. They end in a, b, c, and d due to footnotes included in Excel. For now this doesn’t matter because we will quickly remove them. We’ll cover some text wrangling in Week 9.

Part E: Calculate mean annual price

Post-it up

Modify the pipeline that creates tidy_tuna_prices to get the mean price per year5

# A tibble: 28 × 2
    year price
   <dbl> <dbl>
 1  1997 8186.
 2  1998 7011.
 3  1999 8951.
 4  2000 8877.
 5  2001 5633.
 6  2002 5342.
 7  2003 5285.
 8  2004 5739.
 9  2005 5554.
10  2006 5177.
# ℹ 18 more rows
…
Part A: Read the tuna catch data

Note: You can copy-paste and modify your code from last week, but make sure your code is organized.

Post-it up

Read in the tuna catch data from last week

Filter it to retain bigeye tuna (BET) caught by the purse seine fleet (PS) since 2000

Calculate total catch by year. Your final data should have 24 rows and 2 columns, as below

Post-it down

# A tibble: 24 × 2
    year catch
   <dbl> <dbl>
 1  2000 95283
 2  2001 60518
 3  2002 57422
 4  2003 53051
 5  2004 65471
 6  2005 67895
 7  2006 83837
 8  2007 63451
 9  2008 75028
10  2009 76800
# ℹ 14 more rows
…
What is the key?

Write down, using human language, what you want to do.

Post-it up

Part B: Perform the join

Perform the join and save the output to an object called tuna_revenues

Create a new column that contains the annual revenue in M USD. Pay attention to the units.

Post-it down

# A tibble: 24 × 4
    year catch price revenue
   <dbl> <dbl> <dbl>   <dbl>
 1  2000 95283 8877.    846.
 2  2001 60518 5633.    341.
 3  2002 57422 5342.    307.
 4  2003 53051 5285.    280.
 5  2004 65471 5739.    376.
 6  2005 67895 5554.    377.
 7  2006 83837 5177.    434.
 8  2007 63451 5054.    321.
 9  2008 75028 5636.    423.
10  2009 76800 6175.    474.
# ℹ 14 more rows
…
