Basic programming in R
…
wcpfc_clean

# A tibble: 193,063 × 4
    year   lat   lon  days
   <dbl> <dbl> <dbl> <dbl>
 1  1967   0.5  140.     0
 2  1967   0.5  142.     0
 3  1967  -0.5 -140.     0
 4  1967  -0.5 -142.     0
 5  1967   3.5  136.     0
 6  1967   7.5  134.     0
 7  1967   8.5  134.     0
 8  1968   0.5  140.     0
 9  1968   0.5  144.     0
10  1968  -0.5 -140.     0
# ℹ 193,053 more rows
…
## Clean data -------------------------------------------------------------------
wcpfc_clean <- wcpfc |> 
  select(year = yy,
         lat = lat_short,
         lon = lon_short,
         days) |> 
  # WCPFC reports "the latitude of the south-west corner"
  # We need to fix that
  mutate(
    lat = clean_coords(lat, 1),
    lon = clean_coords(lon, 1))

wcpfc_clean

# A tibble: 193,063 × 4
    year   lat   lon  days
   <dbl> <dbl> <dbl> <dbl>
 1  1967   0.5  140.     0
 2  1967   0.5  142.     0
 3  1967  -0.5  142.     0
 4  1967  -0.5  142.     0
 5  1967   3.5  136.     0
 6  1967   7.5  134.     0
 7  1967   8.5  134.     0
 8  1968   0.5  140.     0
 9  1968   0.5  144.     0
10  1968  -0.5  142.     0
# ℹ 193,053 more rows
…
